{
  "hidden": true,
  "type": "origins:action_over_time",
  "interval": 80,
  "entity_action": {
    "type": "origins:execute_command",
    "command": "function elemental:magic/make_summoned_allies_aggressive"
  }
}
