{
  "name": "Earth Sense",
  "description": "When you mine natural stone, there is a small chance you will find precious gems or minerals.",
  "type": "origins:multiple",
  "overworld": {
    "type": "origins:action_on_block_break",
    "block_condition": {
      "type": "origins:in_tag",
      "tag": "elemental:natural_overworld_stone"
    },
    "entity_action": {
      "type": "origins:and",
      "actions": [
        {
          "type": "origins:chance",
          "action": {
            "type": "origins:execute_command",
            "command": "give @s minecraft:diamond 1"
          },
          "chance": 0.003
        },
        {
          "type": "origins:chance",
          "action": {
            "type": "origins:execute_command",
            "command": "give @s minecraft:coal 1"
          },
          "chance": 0.01
        },
        {
          "type": "origins:chance",
          "action": {
            "type": "origins:execute_command",
            "command": "give @s minecraft:lapis_lazuli 1"
          },
          "chance": 0.01
        },
        {
          "type": "origins:chance",
          "action": {
            "type": "origins:execute_command",
            "command": "give @s minecraft:redstone 2"
          },
          "chance": 0.01
        },
        {
          "type": "origins:chance",
          "action": {
            "type": "origins:execute_command",
            "command": "give @s minecraft:emerald 1"
          },
          "chance": 0.01
        },
        {
          "type": "origins:chance",
          "action": {
            "type": "origins:execute_command",
            "command": "give @s minecraft:iron_ingot 1"
          },
          "chance": 0.01
        },
        {
          "type": "origins:chance",
          "action": {
            "type": "origins:execute_command",
            "command": "give @s minecraft:gold_ingot 1"
          },
          "chance": 0.01
        }
      ]
    }
  },
  "nether": {
    "type": "origins:action_on_block_break",
    "block_condition": {
      "type": "origins:in_tag",
      "tag": "elemental:natural_nether_stone"
    },
    "entity_action": {
      "type": "origins:and",
      "actions": [
        {
          "type": "origins:chance",
          "action": {
            "type": "origins:execute_command",
            "command": "give @s minecraft:gold_ingot 1"
          },
          "chance": 0.02
        },
        {
          "type": "origins:chance",
          "action": {
            "type": "origins:execute_command",
            "command": "give @s minecraft:quartz 1"
          },
          "chance": 0.02
        },
        {
          "type": "origins:chance",
          "action": {
            "type": "origins:execute_command",
            "command": "give @s minecraft:ancient_debris 1"
          },
          "chance": 0.001
        }
      ]
    }
  }
}