{
  "name":"Petrification",
  "description":"You immobilize on anyone you strike bare handed, for a short time.",
  "type":"origins:target_action_on_hit",
  "entity_action":{
    "type":"origins:apply_effect",
    "effect":{
      "effect":"minecraft:slowness",
      "amplifier": 5,
      "show_particles": true,
      "duration": 220
    }
  },
  "damage_condition":{
    "type":"origins:name",
    "name":"player"
  }
}