{
  "name": "Jumper",
  "description": "You can leap great distances, unless you have heavy armor equipped (above chainmail).",
  "type": "origins:stacking_status_effect",
  "min_stacks": 0,
  "max_stacks": 1,
  "tick_rate": 40,
  "duration_per_stack": 250,
  "effect": {
    "effect": "minecraft:jump_boost",
    "amplifier": 5,
    "show_particles": false,
    "show_icon": false
  },
  "condition": {
    "type": "origins:and",
    "conditions": [
      {
        "type": "origins:equipped_item",
        "equipment_slot": "head",
        "item_condition": {
          "type": "origins:armor_value",
          "comparison": "<=",
          "compare_to": 5
        }
      },
      {
        "type": "origins:equipped_item",
        "equipment_slot": "chest",
        "item_condition": {
          "type": "origins:armor_value",
          "comparison": "<=",
          "compare_to": 5
        }
      },
      {
        "type": "origins:equipped_item",
        "equipment_slot": "legs",
        "item_condition": {
          "type": "origins:armor_value",
          "comparison": "<=",
          "compare_to": 5
        }
      },
      {
        "type": "origins:equipped_item",
        "equipment_slot": "feet",
        "item_condition": {
          "type": "origins:armor_value",
          "comparison": "<=",
          "compare_to": 5
        }
      }
    ]
  }
}
