{
  "hidden": true,
  "type":"origins:action_over_time",
  "interval":60,
  "entity_action": {
    "type": "origins:and",
      "actions": [
        {
          "type":"origins:execute_command",
          "command":"execute at @s as @e[distance=0..32,type=minecraft:spider] run team join enemies @s"
        },
        {
          "type":"origins:execute_command",
          "command":"execute at @s as @e[distance=0..32,type=minecraft:cave_spider] run team join enemies @s"
        },
        {
          "type":"origins:execute_command",
          "command":"execute at @s as @e[distance=0..32,type=minecraft:enderman] run team join enemies @s"
        },
        {
          "type":"origins:execute_command",
          "command":"execute at @s as @e[distance=0..32,type=minecraft:endermite] run team join enemies @s"
        },
        {
          "type":"origins:execute_command",
          "command":"execute at @s as @e[distance=0..32,type=minecraft:guardian] run team join enemies @s"
        },
        {
          "type":"origins:execute_command",
          "command":"execute at @s as @e[distance=0..32,type=minecraft:elder_guardian] run team join enemies @s"
        },
        {
          "type":"origins:execute_command",
          "command":"execute at @s as @e[distance=0..32,type=minecraft:shulker] run team join enemies @s"
        },
        {
          "type":"origins:execute_command",
          "command":"execute at @s as @e[distance=0..32,type=minecraft:phantom] run team join enemies @s"
        },
        {
          "type":"origins:execute_command",
          "command":"execute at @s as @e[distance=0..32,type=minecraft:blaze] run team join enemies @s"
        },
        {
          "type":"origins:execute_command",
          "command":"execute at @s as @e[distance=0..32,type=minecraft:magma_cube] run team join enemies @s"
        },
        {
          "type":"origins:execute_command",
          "command":"execute at @s as @e[distance=0..32,type=minecraft:silverfish] run team join enemies @s"
        },
        {
          "type":"origins:execute_command",
          "command":"execute at @s as @e[distance=0..32,type=minecraft:slime] run team join enemies @s"
        },
        {
          "type":"origins:execute_command",
          "command":"execute at @s as @e[distance=0..32,type=minecraft:hoglin] run team join enemies @s"
        },
        {
          "type":"origins:execute_command",
          "command":"execute at @s as @e[distance=0..32,type=minecraft:piglin_brute] run team join enemies @s"
        },
        {
          "type":"origins:execute_command",
          "command":"execute at @s as @e[distance=0..32,type=minecraft:creeper] run team join enemies @s"
        },
        {
          "type":"origins:execute_command",
          "command":"execute at @s as @e[distance=0..32,type=minecraft:pillager] run team join enemies @s"
        },
        {
          "type":"origins:execute_command",
          "command":"execute at @s as @e[distance=0..32,type=minecraft:evoker] run team join enemies @s"
        },
        {
          "type":"origins:execute_command",
          "command":"execute at @s as @e[distance=0..32,type=minecraft:illusioner] run team join enemies @s"
        },
        {
          "type":"origins:execute_command",
          "command":"execute at @s as @e[distance=0..32,type=minecraft:ravager] run team join enemies @s"
        },
        {
          "type":"origins:execute_command",
          "command":"execute at @s as @e[distance=0..32,type=minecraft:witch] run team join enemies @s"
        },
        {
          "type":"origins:execute_command",
          "command":"execute at @s as @e[distance=0..32,type=minecraft:vindicator] run team join enemies @s"
        },
        {
          "type":"origins:execute_command",
          "command":"execute at @s as @e[distance=0..32,type=minecraft:ender_dragon] run team join enemies @s"
        }
      ]
    }
  }
}
