{
  "name": "Gail",
  "description": "Summon a powerful wind that knocks everyone back.",
  "type": "origins:active_self",
  "key": "key.origins.secondary_active",
  "cooldown": 10,
  "hud_render": {
    "should_render": true,
    "sprite_location": "origins:textures/gui/community/spiderkolo/resource_bar_03.png",
    "bar_index": 23
  },
  "entity_action": {
    "type":"origins:execute_command",
    "command":"function elemental:magic/gail"
  }
}