{
  "type":"crafting_shapeless",
  "group": "elemental:crafted_potion",
  "ingredients": [
    {"item": "minecraft:nether_wart"},
    {"item": "minecraft:glass_bottle"},
    {"item": "minecraft:firework_rocket"}
  ],
  "result": {
    "item": "minecraft:experience_bottle"
  }
}
