{
  "values": [
    //
    // standard minecraft entity_type tags
    //
    "#minecraft:skeletons",
      // "minecraft:skeleton",
      // "minecraft:stray",
      // "minecraft:wither_skeleton",

    "#minecraft:raiders",
      // "minecraft:evoker",
      // "minecraft:pillager",
      // "minecraft:ravager",
      // "minecraft:vindicator",
      // "minecraft:illusioner",
      // "minecraft:witch"

    //
    // common/compatibility/convention "c" entity tags defined by fabric or other mods
    //
    "#c:creepers",
    "#c:skeletons",
    "#c:zombies",
    "#c:bosses",
    "#c:endermen",

    // individual mobs
    "minecraft:blaze",
    "minecraft:cave_spider",
    "minecraft:creeper",
    "minecraft:drowned",
    "minecraft:elder_guardian",
    "minecraft:enderman",
    "minecraft:endermite",
    "minecraft:ender_dragon",
    "minecraft:ghast",
    "minecraft:guardian",
    "minecraft:hoglin",
    "minecraft:husk",
    "minecraft:magma_cube",
    "minecraft:phantom",
    "minecraft:piglin",
    "minecraft:piglin_brute",
    "minecraft:shulker",
    "minecraft:silverfish",
    "minecraft:slime",
    "minecraft:spider",
    "minecraft:vex",
    "minecraft:warden",
    "minecraft:wither",
    "minecraft:zoglin",
    "minecraft:zombie"
    //"minecraft:zombie_villager",
    //"minecraft:zombified_piglin"
  ]
}
