{
	"type":"origins:multiple",
	"summon":{
		"type":"origins:active_self",
        "key":"key.origins.primary_active",
		"entity_action":{
			"type":"origins:and",
			"actions":[
				{
					"type":"origins:execute_command",
					"command":"summon minecraft:zombie ^-2 ^ ^ {Tags:['minion'],ArmorItems:[{Count:1,id:'minecraft:iron_boots',tag:{Enchantments:[{id:'minecraft:vanishing_curse',lvl:1}]}},{Count:1,id:'minecraft:iron_leggings',tag:{Enchantments:[{id:'minecraft:vanishing_curse',lvl:1}]}},{Count:1,id:'minecraft:iron_chestplate',tag:{Enchantments:[{id:'minecraft:vanishing_curse',lvl:1}]}},{Count:1,id:'minecraft:iron_helmet',tag:{Enchantments:[{id:'minecraft:vanishing_curse',lvl:1}]}}]}"
				},
				{
					"type":"origins:execute_command",
					"command":"playsound minecraft:entity.evoker.cast_spell ambient @p ~ ~ ~"
				}
			]
		}
	},
	"create_team":{
		"type":"origins:action_on_callback",
		"entity_action_added":{
			"type":"origins:execute_command",
			"command":"team add necromancer"
		},
		"entity_action_removed":{
			"type":"origins:execute_command",
			"command":"team leave @s"
		}
	},
	"join_team":{
		"type":"origins:action_over_time",
		"interval":20,
		"entity_action":{
			"type":"origins:and",
			"actions":[
				{
					"type":"origins:execute_command",
					"command":"team join necromancer @s"
				},
				{
					"type":"origins:execute_command",
					"command":"team join necromancer @e[tag=minion,distance=..64]"
				}
			]
		}
	},
	"target":{
		"type":"origins:target_action_on_hit",
		"entity_action":{
			"type":"origins:and",
			"actions":[
				{
					"type":"origins:execute_command",
					"command":"tag @s add self"
				},
				{
					"type":"origins:execute_command",
					"command":"execute at @e[type=!minecraft:player,team=necromancer,distance=..64] run summon minecraft:snowball ~ ~2.5 ~ {Tags:['aggro.init'],Motion:[0.0,-1.0,0.0]}"
				},
				{
					"type":"origins:execute_command",
					"command":"execute as @e[tag=aggro.init] run data modify entity @s Owner set from entity @e[tag=self,limit=1] UUID"
				},
				{
					"type":"origins:execute_command",
					"command":"tag @s remove self"
				},
				{
					"type":"origins:execute_command",
					"command":"tag @e remove aggro.init"
				}
			]
		}
	},
	"attacker":{
		"type":"origins:attacker_action_when_hit",
		"entity_action":{
			"type":"origins:and",
			"actions":[
				{
					"type":"origins:execute_command",
					"command":"tag @s add self"
				},
				{
					"type":"origins:execute_command",
					"command":"execute at @e[type=!minecraft:player,team=lunar-path,distance=..64] run summon minecraft:snowball ~ ~2.5 ~ {Tags:['aggro.init'],Motion:[0.0,-1.0,0.0]}"
				},
				{
					"type":"origins:execute_command",
					"command":"execute as @e[tag=aggro.init] run data modify entity @s Owner set from entity @e[tag=self,limit=1] UUID"
				},
				{
					"type":"origins:execute_command",
					"command":"tag @s remove self"
				},
				{
					"type":"origins:execute_command",
					"command":"tag @e remove aggro.init"
				}
			]
		}
	}
}