{
  "hidden": true,
  "type":"origins:multiple",
  "create_team":{
    "type":"origins:action_on_callback",
    "entity_action_added": {
      "type":"origins:execute_command",
      "command":"team add necromancer"
    },
    "entity_action_removed": {
      "type":"origins:execute_command",
      "command":"team leave @s"
    }
  },
  "join_team":{
    "type":"origins:action_over_time",
    "interval":20,
    "entity_action": {
      "type":"origins:and",
      "actions": [
        {
          "type":"origins:execute_command",
          "command":"team join necromancer @s"
        },
        {
          "type":"origins:execute_command",
          "command":"team join necromancer @e[tag=minion,distance=..64]"
        }
      ]
    }
  },
  "make_aggressive": {
    "type": "origins:action_over_time",
    "interval": 20,
    "entity_action": {
      "type": "origins:execute_command",
      "command": "function elemental:necromancy/make_aggressive"
    }
  }
}