{
  "display": {
    "title": {"text": ""},
    "description": {"text": ""},
    "icon": {"item": "minecraft:potion"},
    "announce_to_chat": false,
    "hidden": true
  },
  "criteria": {
    "alchemist": {
      "trigger": "minecraft:recipe_crafted",
      "conditions": {
        "recipe_id": "elemental:potion_night_vision",
        "player": {
          "nbt": "{Tags:['alchemist']}"
        }
      }
    }
  },
  "rewards": {
    "function": "elemental:alchemy/brew_night_vision"
  },
  "parent": "elemental:alchemy/brew_root"
}
