{
    "type":"origins:multiple",
    "hidden":true,
    "empty":{
        "type":"origins:action_over_time",
        "entity_action":{
            "type":"origins:damage",
            "amount":60,
            "source":{
                "name":"wither",
                "bypasses_armor":true,
                "unblockable":true
            }
        },
        "interval":1,
        "condition":{
            "type":"origins:resource",
            "resource":"elemental:necromancy/mana",
            "comparison":"<",
            "compare_to":1
        }
    },
    "refill":{
        "type":"origins:action_over_time",
        "entity_action":{
            "type":"origins:change_resource",
            "resource":"elemental:necromancy/mana",
            "change":4
        },
        "interval":10,
        "condition":{
            "type":"origins:resource",
            "resource":"elemental:necromancy/mana",
            "comparison":"<",
            "compare_to":1000
        }
    },
    "respawn":{
        "type":"origins:action_on_callback",
        "entity_action_respawned":{
            "type":"origins:change_resource",
            "resource":"elemental:necromancy/mana",
            "change":200,
            "operation":"set"
        }
    }
}