{
  "values": [
    "minecraft:blaze_powder",
    "minecraft:dragon_breath",
    "minecraft:experience_bottle",
    "minecraft:fermented_spider_eye",
    "minecraft:ghast_tear",
    "minecraft:glass_bottle",
    "minecraft:glistering_melon_slice",
    "minecraft:glow_ink_sac",
    "minecraft:golden_apple",
    "minecraft:golden_carrot",
    "minecraft:gunpowder",
    "minecraft:feather",
    "minecraft:firework_rocket",
    "minecraft:honey_bottle",
    "minecraft:lingering_potion",
    "minecraft:magma_cream",
    "minecraft:nautilus_shell",
    "minecraft:nether_wart",
    "minecraft:phantom_membrane",
    "minecraft:potion",
    "minecraft:prismarine_shard",
    "minecraft:pufferfish",
    "minecraft:rabbit_foot",
    "minecraft:shulker_shell",
    "minecraft:spider_eye",
    "minecraft:splash_potion",
    "minecraft:sugar"
  ]
}