{
  "values": [
    "minecraft:chainmail_boots",
    "minecraft:chainmail_chestplate",
    "minecraft:chainmail_helmet",
    "minecraft:chainmail_leggings",
    "minecraft:diamond_boots",
    "minecraft:diamond_chestplate",
    "minecraft:diamond_helmet",
    "minecraft:diamond_leggings",
    "minecraft:golden_boots",
    "minecraft:golden_chestplate",
    "minecraft:golden_helmet",
    "minecraft:golden_leggings",
    "minecraft:iron_boots",
    "minecraft:iron_chestplate",
    "minecraft:iron_helmet",
    "minecraft:iron_leggings",
    "minecraft:leather_boots",
    "minecraft:leather_chestplate",
    "minecraft:leather_helmet",
    "minecraft:leather_leggings",
    "minecraft:netherite_boots",
    "minecraft:netherite_chestplate",
    "minecraft:netherite_helmet",
    "minecraft:netherite_leggings",
    "minecraft:turtle_helmet"
  ]
}