{
  "name": "Wings",
  "description": "Jump while in the air to fly.",
  "type": "origins:multiple",
  "launch": {
    "type":"origins:launch",
    "cooldown":10,
    "sound":"minecraft:entity.ender_dragon.flap",
    "speed":0.6,
    "key":"key.jump",
    "condition": {
      "type": "origins:on_block",
      "inverted": true
    }
  },
  "elytra": {
    "type":"origins:elytra_flight",
    "texture_location": "elemental:textures/entity/black_dragon_wings.png",
    "render_elytra":true
  }
}