{
  "name": "Wings",
  "description": "You have special fairy wings that allow you to both swoop fast and to hover in mid-air. Jump while in the air to flap your wings. Quick double jump to toggle hover mode.",
  "type": "origins:multiple",
  "launch": {
    "type":"origins:launch",
    "cooldown": 8,
    "sound": "minecraft:entity.ender_dragon.flap",
    "speed": 0.8,
    "key": "key.jump",
    "condition": {
      "type": "origins:on_block",
      "inverted": true
    }
  },
  "elytra": {
    "type": "origins:elytra_flight",
    "texture_location": "elemental:textures/entity/blue_butterfly_wings.png",
    "render_elytra": true
  },
  "creative_flight": {
    "type": "origins:creative_flight"
  }
}