{
  "name": "Dolphin Form",
  "description": "You are a dolphin who can swim very fast.",
  "type": "origins:multiple",
  "cycle": {
    "type": "origins:active_self",
    "entity_action": {
      "type": "origins:execute_command",
      "command": "function elemental:druid/become_bear"
    },
    "key": "key.saveToolbarActivator"
  }
}