{
  "powers":[
    "elemental:air/knockback",
    "elemental:air/gail",
    "elemental:dragon/wings_fast",
    "elemental:dragon/breath_weapon",
    "elemental:dragon/claws",
    "elemental:dragon/scales",
    "elemental:fire/fire_resistance",
    "elemental:common/night_vision",
    "elemental:air/fall_immunity",
    "elemental:common/light_armor"
  ],
  "icon":"minecraft:white_glazed_terracotta",
  "impact": 3,
  "order": 1,
  "name": "Wind Dragon",
  "description": "Element: Wind\n\nWind dragons rule the skies."
}
